Create the DataValues table — create_data_values • hymetDP
…
  DataValues
#> # A tibble: 30,003 × 15
#>    ValueID DataValue ValueAccuracy LocalDateTime       UTCOffset
#>    <chr>       <dbl>         <dbl> <dttm>                  <dbl>
#>  1 1           144.             NA 2002-01-11 23:45:00        13
#>  2 2             0.1            NA 2002-01-11 23:45:00        13
#>  3 3            16.3            NA 2002-01-11 23:45:00        13
#>  4 4           121.             NA 2002-01-12 00:00:00        13
#>  5 5             0.1            NA 2002-01-12 00:00:00        13
#>  6 6            16.4            NA 2002-01-12 00:00:00        13
#>  7 7           116.             NA 2002-01-12 00:15:00        13
#>  8 8             0.1            NA 2002-01-12 00:15:00        13
#>  9 9            16.9            NA 2002-01-12 00:15:00        13
#> 10 10          139.             NA 2002-01-12 00:30:00        13
#> # … with 29,993 more rows, and 10 more variables: DateTimeUTC <dttm>,
#> #   SiteCode <chr>, VariableCode <chr>, OffsetValue <dbl>,
#> #   OffsetTypeCode <chr>, CensorCode <chr>, QualifierCode <chr>,
#> #   MethodCode <chr>, SourceCode <chr>, QualityControlLevelCode <chr>
…
